{
	"info": {
		"_postman_id": "0825d6c0-3027-417e-9a6f-8519b233cd01",
		"name": "AppForm",
		"schema": "https://schema.getpostman.com/json/collection/v2.1.0/collection.json",
		"_exporter_id": "23431188"
	},
	"item": [
		{
			"name": "pdf",
			"item": [
				{
					"name": "form60",
					"request": {
						"auth": {
							"type": "bearer",
							"bearer": [
								{
									"key": "token",
									"value": "eyJhbGciOiJIUzUxMiJ9.eyJzdWIiOiJ0YXRhYWlhIiwiY3VycmVudHRpbWVzdGFtcCI6MTY3NTA5MTEzMzIwMSwicm9sZXMiOlsiUk9MRV9BTk9NIiwiUk9MRV9BVVRIIiwiUk9MRV9DU1VQUE9SVCIsIlJPTEVfVkVSRlkiXSwiZXhwIjoxNjc1MDkxNzMzLCJkZXZpY2VpZCI6bnVsbCwiaWF0IjoxNjc1MDkxMTMzfQ.jVqoChMcOKxpDwrlipzXRUDv7vXDZFD2tPzEif95YJCVRZjxqQRrjLFP1dhze6SSdXTq0K5IJNTqXRArzJcU1A",
									"type": "string"
								}
							]
						},
						"method": "POST",
						"header": [],
						"body": {
							"mode": "raw",
							"raw": "\"{\\\"policyNumber\\\" : \\\"C089994904\\\"\\n}\"",
							"options": {
								"raw": {
									"language": "text"
								}
							}
						},
						"url": {
							"raw": "http://172.23.25.25:8087/pdf/v1/form60",
							"protocol": "http",
							"host": [
								"172",
								"23",
								"25",
								"25"
							],
							"port": "8087",
							"path": [
								"pdf",
								"v1",
								"form60"
							]
						}
					},
					"response": []
				},
				{
					"name": "CCR",
					"request": {
						"auth": {
							"type": "bearer",
							"bearer": [
								{
									"key": "token",
									"value": "eyJhbGciOiJIUzUxMiJ9.eyJzdWIiOiJ0YXRhYWlhIiwiY3VycmVudHRpbWVzdGFtcCI6MTY3NTA5MTEzMzIwMSwicm9sZXMiOlsiUk9MRV9BTk9NIiwiUk9MRV9BVVRIIiwiUk9MRV9DU1VQUE9SVCIsIlJPTEVfVkVSRlkiXSwiZXhwIjoxNjc1MDkxNzMzLCJkZXZpY2VpZCI6bnVsbCwiaWF0IjoxNjc1MDkxMTMzfQ.jVqoChMcOKxpDwrlipzXRUDv7vXDZFD2tPzEif95YJCVRZjxqQRrjLFP1dhze6SSdXTq0K5IJNTqXRArzJcU1A",
									"type": "string"
								}
							]
						},
						"method": "POST",
						"header": [],
						"body": {
							"mode": "raw",
							"raw": "\"{\\\"policyNumber\\\" : \\\"C089994904\\\"\\n}\"",
							"options": {
								"raw": {
									"language": "text"
								}
							}
						},
						"url": {
							"raw": "http://172.23.25.25:8087/pdf/v1/ccr",
							"protocol": "http",
							"host": [
								"172",
								"23",
								"25",
								"25"
							],
							"port": "8087",
							"path": [
								"pdf",
								"v1",
								"ccr"
							]
						}
					},
					"response": []
				},
				{
					"name": "occupation",
					"request": {
						"auth": {
							"type": "bearer",
							"bearer": [
								{
									"key": "token",
									"value": "eyJhbGciOiJIUzUxMiJ9.eyJzdWIiOiJ0YXRhYWlhIiwiY3VycmVudHRpbWVzdGFtcCI6MTY3NTA5MTEzMzIwMSwicm9sZXMiOlsiUk9MRV9BTk9NIiwiUk9MRV9BVVRIIiwiUk9MRV9DU1VQUE9SVCIsIlJPTEVfVkVSRlkiXSwiZXhwIjoxNjc1MDkxNzMzLCJkZXZpY2VpZCI6bnVsbCwiaWF0IjoxNjc1MDkxMTMzfQ.jVqoChMcOKxpDwrlipzXRUDv7vXDZFD2tPzEif95YJCVRZjxqQRrjLFP1dhze6SSdXTq0K5IJNTqXRArzJcU1A",
									"type": "string"
								}
							]
						},
						"method": "POST",
						"header": [],
						"body": {
							"mode": "raw",
							"raw": "\"{\\\"policyNumber\\\" : \\\"C089994904\\\"\\n}\"",
							"options": {
								"raw": {
									"language": "text"
								}
							}
						},
						"url": {
							"raw": "http://172.23.25.25:8087/pdf/v1/form60",
							"protocol": "http",
							"host": [
								"172",
								"23",
								"25",
								"25"
							],
							"port": "8087",
							"path": [
								"pdf",
								"v1",
								"form60"
							]
						}
					},
					"response": []
				},
				{
					"name": "hypertension",
					"request": {
						"auth": {
							"type": "bearer",
							"bearer": [
								{
									"key": "token",
									"value": "{{TOKEN}}",
									"type": "string"
								}
							]
						},
						"method": "POST",
						"header": [],
						"body": {
							"mode": "raw",
							"raw": "{\r\n    \"policyNumber\": \"c459415314\"\r\n}",
							"options": {
								"raw": {
									"language": "json"
								}
							}
						},
						"url": {
							"raw": "http://172.23.25.25:8087/app-form/v1/pdf/hypertension",
							"protocol": "http",
							"host": [
								"172",
								"23",
								"25",
								"25"
							],
							"port": "8087",
							"path": [
								"app-form",
								"v1",
								"pdf",
								"hypertension"
							]
						}
					},
					"response": []
				},
				{
					"name": "housewife",
					"request": {
						"auth": {
							"type": "bearer",
							"bearer": [
								{
									"key": "token",
									"value": "eyJhbGciOiJIUzUxMiJ9.eyJzdWIiOiJ0YXRhYWlhIiwiY3VycmVudHRpbWVzdGFtcCI6MTY3NTA5MTEzMzIwMSwicm9sZXMiOlsiUk9MRV9BTk9NIiwiUk9MRV9BVVRIIiwiUk9MRV9DU1VQUE9SVCIsIlJPTEVfVkVSRlkiXSwiZXhwIjoxNjc1MDkxNzMzLCJkZXZpY2VpZCI6bnVsbCwiaWF0IjoxNjc1MDkxMTMzfQ.jVqoChMcOKxpDwrlipzXRUDv7vXDZFD2tPzEif95YJCVRZjxqQRrjLFP1dhze6SSdXTq0K5IJNTqXRArzJcU1A",
									"type": "string"
								}
							]
						},
						"method": "POST",
						"header": [],
						"body": {
							"mode": "raw",
							"raw": "\"{\\\"policyNumber\\\" : \\\"C089994904\\\"\\n}\"",
							"options": {
								"raw": {
									"language": "text"
								}
							}
						},
						"url": {
							"raw": "http://172.23.25.25:8087/pdf/v1/form60",
							"protocol": "http",
							"host": [
								"172",
								"23",
								"25",
								"25"
							],
							"port": "8087",
							"path": [
								"pdf",
								"v1",
								"form60"
							]
						}
					},
					"response": []
				},
				{
					"name": "agriculture",
					"request": {
						"auth": {
							"type": "bearer",
							"bearer": [
								{
									"key": "token",
									"value": "eyJhbGciOiJIUzUxMiJ9.eyJzdWIiOiJ0YXRhYWlhIiwiY3VycmVudHRpbWVzdGFtcCI6MTY3NTA5MTEzMzIwMSwicm9sZXMiOlsiUk9MRV9BTk9NIiwiUk9MRV9BVVRIIiwiUk9MRV9DU1VQUE9SVCIsIlJPTEVfVkVSRlkiXSwiZXhwIjoxNjc1MDkxNzMzLCJkZXZpY2VpZCI6bnVsbCwiaWF0IjoxNjc1MDkxMTMzfQ.jVqoChMcOKxpDwrlipzXRUDv7vXDZFD2tPzEif95YJCVRZjxqQRrjLFP1dhze6SSdXTq0K5IJNTqXRArzJcU1A",
									"type": "string"
								}
							]
						},
						"method": "POST",
						"header": [],
						"body": {
							"mode": "raw",
							"raw": "\"{\\\"policyNumber\\\" : \\\"C089994904\\\"\\n}\"",
							"options": {
								"raw": {
									"language": "text"
								}
							}
						},
						"url": {
							"raw": "http://172.23.25.25:8087/pdf/v1/form60",
							"protocol": "http",
							"host": [
								"172",
								"23",
								"25",
								"25"
							],
							"port": "8087",
							"path": [
								"pdf",
								"v1",
								"form60"
							]
						}
					},
					"response": []
				},
				{
					"name": "defence",
					"request": {
						"auth": {
							"type": "bearer",
							"bearer": [
								{
									"key": "token",
									"value": "eyJhbGciOiJIUzUxMiJ9.eyJzdWIiOiJ0YXRhYWlhIiwiY3VycmVudHRpbWVzdGFtcCI6MTY3NTA5MTEzMzIwMSwicm9sZXMiOlsiUk9MRV9BTk9NIiwiUk9MRV9BVVRIIiwiUk9MRV9DU1VQUE9SVCIsIlJPTEVfVkVSRlkiXSwiZXhwIjoxNjc1MDkxNzMzLCJkZXZpY2VpZCI6bnVsbCwiaWF0IjoxNjc1MDkxMTMzfQ.jVqoChMcOKxpDwrlipzXRUDv7vXDZFD2tPzEif95YJCVRZjxqQRrjLFP1dhze6SSdXTq0K5IJNTqXRArzJcU1A",
									"type": "string"
								}
							]
						},
						"method": "POST",
						"header": [],
						"body": {
							"mode": "raw",
							"raw": "\"{\\\"policyNumber\\\" : \\\"C089994904\\\"\\n}\"",
							"options": {
								"raw": {
									"language": "text"
								}
							}
						},
						"url": {
							"raw": "http://172.23.25.25:8087/pdf/v1/form60",
							"protocol": "http",
							"host": [
								"172",
								"23",
								"25",
								"25"
							],
							"port": "8087",
							"path": [
								"pdf",
								"v1",
								"form60"
							]
						}
					},
					"response": []
				},
				{
					"name": "Dogh",
					"request": {
						"auth": {
							"type": "bearer",
							"bearer": [
								{
									"key": "token",
									"value": "eyJhbGciOiJIUzUxMiJ9.eyJzdWIiOiJ0YXRhYWlhIiwiY3VycmVudHRpbWVzdGFtcCI6MTY3NTA5MTEzMzIwMSwicm9sZXMiOlsiUk9MRV9BTk9NIiwiUk9MRV9BVVRIIiwiUk9MRV9DU1VQUE9SVCIsIlJPTEVfVkVSRlkiXSwiZXhwIjoxNjc1MDkxNzMzLCJkZXZpY2VpZCI6bnVsbCwiaWF0IjoxNjc1MDkxMTMzfQ.jVqoChMcOKxpDwrlipzXRUDv7vXDZFD2tPzEif95YJCVRZjxqQRrjLFP1dhze6SSdXTq0K5IJNTqXRArzJcU1A",
									"type": "string"
								}
							]
						},
						"method": "POST",
						"header": [],
						"body": {
							"mode": "raw",
							"raw": "\"{\\\"policyNumber\\\" : \\\"C089994904\\\"\\n}\"",
							"options": {
								"raw": {
									"language": "text"
								}
							}
						},
						"url": {
							"raw": "http://172.23.25.25:8087/pdf/v1/form60",
							"protocol": "http",
							"host": [
								"172",
								"23",
								"25",
								"25"
							],
							"port": "8087",
							"path": [
								"pdf",
								"v1",
								"form60"
							]
						}
					},
					"response": []
				},
				{
					"name": "nmlPdf",
					"request": {
						"auth": {
							"type": "bearer",
							"bearer": [
								{
									"key": "token",
									"value": "eyJhbGciOiJIUzUxMiJ9.eyJzdWIiOiJ0YXRhYWlhIiwiY3VycmVudHRpbWVzdGFtcCI6MTY3NTA5MTEzMzIwMSwicm9sZXMiOlsiUk9MRV9BTk9NIiwiUk9MRV9BVVRIIiwiUk9MRV9DU1VQUE9SVCIsIlJPTEVfVkVSRlkiXSwiZXhwIjoxNjc1MDkxNzMzLCJkZXZpY2VpZCI6bnVsbCwiaWF0IjoxNjc1MDkxMTMzfQ.jVqoChMcOKxpDwrlipzXRUDv7vXDZFD2tPzEif95YJCVRZjxqQRrjLFP1dhze6SSdXTq0K5IJNTqXRArzJcU1A",
									"type": "string"
								}
							]
						},
						"method": "POST",
						"header": [],
						"body": {
							"mode": "raw",
							"raw": "\"{\\\"policyNumber\\\" : \\\"C089994904\\\"\\n}\"",
							"options": {
								"raw": {
									"language": "text"
								}
							}
						},
						"url": {
							"raw": "http://172.23.25.25:8087/pdf/v1/form60",
							"protocol": "http",
							"host": [
								"172",
								"23",
								"25",
								"25"
							],
							"port": "8087",
							"path": [
								"pdf",
								"v1",
								"form60"
							]
						}
					},
					"response": []
				},
				{
					"name": "mwp",
					"request": {
						"auth": {
							"type": "bearer",
							"bearer": [
								{
									"key": "token",
									"value": "eyJhbGciOiJIUzUxMiJ9.eyJzdWIiOiJ0YXRhYWlhIiwiY3VycmVudHRpbWVzdGFtcCI6MTY3NTA5MTEzMzIwMSwicm9sZXMiOlsiUk9MRV9BTk9NIiwiUk9MRV9BVVRIIiwiUk9MRV9DU1VQUE9SVCIsIlJPTEVfVkVSRlkiXSwiZXhwIjoxNjc1MDkxNzMzLCJkZXZpY2VpZCI6bnVsbCwiaWF0IjoxNjc1MDkxMTMzfQ.jVqoChMcOKxpDwrlipzXRUDv7vXDZFD2tPzEif95YJCVRZjxqQRrjLFP1dhze6SSdXTq0K5IJNTqXRArzJcU1A",
									"type": "string"
								}
							]
						},
						"method": "POST",
						"header": [],
						"body": {
							"mode": "raw",
							"raw": "\"{\\\"policyNumber\\\" : \\\"C089994904\\\"\\n}\"",
							"options": {
								"raw": {
									"language": "text"
								}
							}
						},
						"url": {
							"raw": "http://172.23.25.25:8087/pdf/v1/form60",
							"protocol": "http",
							"host": [
								"172",
								"23",
								"25",
								"25"
							],
							"port": "8087",
							"path": [
								"pdf",
								"v1",
								"form60"
							]
						}
					},
					"response": []
				},
				{
					"name": "travel",
					"request": {
						"auth": {
							"type": "bearer",
							"bearer": [
								{
									"key": "token",
									"value": "eyJhbGciOiJIUzUxMiJ9.eyJzdWIiOiJ0YXRhYWlhIiwiY3VycmVudHRpbWVzdGFtcCI6MTY3NTA5NzQ5NTU3Nywicm9sZXMiOlsiUk9MRV9BTk9NIiwiUk9MRV9BVVRIIiwiUk9MRV9DU1VQUE9SVCIsIlJPTEVfVkVSRlkiXSwiZXhwIjoxNjc1MDk4MDk1LCJkZXZpY2VpZCI6bnVsbCwiaWF0IjoxNjc1MDk3NDk1fQ.80xPOjUcEHZsxCiVqEw_rAaZtFdNygjYRLTKGi4T8sMM5MYDZZtCWyjFeymBuacok-YN_eNQDkR9TLUqnD3iBA",
									"type": "string"
								}
							]
						},
						"method": "POST",
						"header": [],
						"body": {
							"mode": "raw",
							"raw": "{\r\n    \"polNumber\" : \"C349625748\",\r\n    \"isInsured\" : true\r\n}",
							"options": {
								"raw": {
									"language": "json"
								}
							}
						},
						"url": {
							"raw": "http://172.23.25.25:8087/pdf/v1/travel",
							"protocol": "http",
							"host": [
								"172",
								"23",
								"25",
								"25"
							],
							"port": "8087",
							"path": [
								"pdf",
								"v1",
								"travel"
							]
						}
					},
					"response": []
				},
				{
					"name": "diabetes",
					"request": {
						"auth": {
							"type": "bearer",
							"bearer": [
								{
									"key": "token",
									"value": "eyJhbGciOiJIUzUxMiJ9.eyJzdWIiOiJ0YXRhYWlhIiwiY3VycmVudHRpbWVzdGFtcCI6MTY3NTA5MTEzMzIwMSwicm9sZXMiOlsiUk9MRV9BTk9NIiwiUk9MRV9BVVRIIiwiUk9MRV9DU1VQUE9SVCIsIlJPTEVfVkVSRlkiXSwiZXhwIjoxNjc1MDkxNzMzLCJkZXZpY2VpZCI6bnVsbCwiaWF0IjoxNjc1MDkxMTMzfQ.jVqoChMcOKxpDwrlipzXRUDv7vXDZFD2tPzEif95YJCVRZjxqQRrjLFP1dhze6SSdXTq0K5IJNTqXRArzJcU1A",
									"type": "string"
								}
							]
						},
						"method": "POST",
						"header": [],
						"body": {
							"mode": "raw",
							"raw": "\"{\\\"policyNumber\\\" : \\\"C089994904\\\"\\n}\"",
							"options": {
								"raw": {
									"language": "text"
								}
							}
						},
						"url": {
							"raw": "http://172.23.25.25:8087/pdf/v1/diabetes",
							"protocol": "http",
							"host": [
								"172",
								"23",
								"25",
								"25"
							],
							"port": "8087",
							"path": [
								"pdf",
								"v1",
								"diabetes"
							]
						}
					},
					"response": []
				},
				{
					"name": "covidQstn",
					"request": {
						"auth": {
							"type": "bearer",
							"bearer": [
								{
									"key": "token",
									"value": "eyJhbGciOiJIUzUxMiJ9.eyJzdWIiOiJ0YXRhYWlhIiwiY3VycmVudHRpbWVzdGFtcCI6MTY3NTA5MTEzMzIwMSwicm9sZXMiOlsiUk9MRV9BTk9NIiwiUk9MRV9BVVRIIiwiUk9MRV9DU1VQUE9SVCIsIlJPTEVfVkVSRlkiXSwiZXhwIjoxNjc1MDkxNzMzLCJkZXZpY2VpZCI6bnVsbCwiaWF0IjoxNjc1MDkxMTMzfQ.jVqoChMcOKxpDwrlipzXRUDv7vXDZFD2tPzEif95YJCVRZjxqQRrjLFP1dhze6SSdXTq0K5IJNTqXRArzJcU1A",
									"type": "string"
								}
							]
						},
						"method": "POST",
						"header": [],
						"body": {
							"mode": "raw",
							"raw": "{\"application_no\":\"14255\",\"isInsured\":true}",
							"options": {
								"raw": {
									"language": "text"
								}
							}
						},
						"url": {
							"raw": "http://172.23.25.25:8087/pdf/v1/covidQstn",
							"protocol": "http",
							"host": [
								"172",
								"23",
								"25",
								"25"
							],
							"port": "8087",
							"path": [
								"pdf",
								"v1",
								"covidQstn"
							]
						}
					},
					"response": []
				},
				{
					"name": "fatca",
					"request": {
						"auth": {
							"type": "bearer",
							"bearer": [
								{
									"key": "token",
									"value": "eyJhbGciOiJIUzUxMiJ9.eyJzdWIiOiJ0YXRhYWlhIiwiY3VycmVudHRpbWVzdGFtcCI6MTY3NTA5MTEzMzIwMSwicm9sZXMiOlsiUk9MRV9BTk9NIiwiUk9MRV9BVVRIIiwiUk9MRV9DU1VQUE9SVCIsIlJPTEVfVkVSRlkiXSwiZXhwIjoxNjc1MDkxNzMzLCJkZXZpY2VpZCI6bnVsbCwiaWF0IjoxNjc1MDkxMTMzfQ.jVqoChMcOKxpDwrlipzXRUDv7vXDZFD2tPzEif95YJCVRZjxqQRrjLFP1dhze6SSdXTq0K5IJNTqXRArzJcU1A",
									"type": "string"
								}
							]
						},
						"method": "POST",
						"header": [],
						"body": {
							"mode": "raw",
							"raw": "{\"application_no\":\"14255\",\"isInsured\":true}",
							"options": {
								"raw": {
									"language": "text"
								}
							}
						},
						"url": {
							"raw": "http://172.23.25.25:8087/pdf/v1/covidQstn",
							"protocol": "http",
							"host": [
								"172",
								"23",
								"25",
								"25"
							],
							"port": "8087",
							"path": [
								"pdf",
								"v1",
								"covidQstn"
							]
						}
					},
					"response": []
				},
				{
					"name": "lifestyle",
					"request": {
						"auth": {
							"type": "bearer",
							"bearer": [
								{
									"key": "token",
									"value": "eyJhbGciOiJIUzUxMiJ9.eyJzdWIiOiJ0YXRhYWlhIiwiY3VycmVudHRpbWVzdGFtcCI6MTY3NTA5MTEzMzIwMSwicm9sZXMiOlsiUk9MRV9BTk9NIiwiUk9MRV9BVVRIIiwiUk9MRV9DU1VQUE9SVCIsIlJPTEVfVkVSRlkiXSwiZXhwIjoxNjc1MDkxNzMzLCJkZXZpY2VpZCI6bnVsbCwiaWF0IjoxNjc1MDkxMTMzfQ.jVqoChMcOKxpDwrlipzXRUDv7vXDZFD2tPzEif95YJCVRZjxqQRrjLFP1dhze6SSdXTq0K5IJNTqXRArzJcU1A",
									"type": "string"
								}
							]
						},
						"method": "POST",
						"header": [],
						"body": {
							"mode": "raw",
							"raw": "{\"application_no\":\"14255\",\"isInsured\":true}",
							"options": {
								"raw": {
									"language": "text"
								}
							}
						},
						"url": {
							"raw": "http://172.23.25.25:8087/pdf/v1/covidQstn",
							"protocol": "http",
							"host": [
								"172",
								"23",
								"25",
								"25"
							],
							"port": "8087",
							"path": [
								"pdf",
								"v1",
								"covidQstn"
							]
						}
					},
					"response": []
				},
				{
					"name": "lifestyle Copy",
					"request": {
						"auth": {
							"type": "bearer",
							"bearer": [
								{
									"key": "token",
									"value": "eyJhbGciOiJIUzUxMiJ9.eyJzdWIiOiJ0YXRhYWlhIiwiY3VycmVudHRpbWVzdGFtcCI6MTY3NTA5MTEzMzIwMSwicm9sZXMiOlsiUk9MRV9BTk9NIiwiUk9MRV9BVVRIIiwiUk9MRV9DU1VQUE9SVCIsIlJPTEVfVkVSRlkiXSwiZXhwIjoxNjc1MDkxNzMzLCJkZXZpY2VpZCI6bnVsbCwiaWF0IjoxNjc1MDkxMTMzfQ.jVqoChMcOKxpDwrlipzXRUDv7vXDZFD2tPzEif95YJCVRZjxqQRrjLFP1dhze6SSdXTq0K5IJNTqXRArzJcU1A",
									"type": "string"
								}
							]
						},
						"method": "POST",
						"header": [],
						"body": {
							"mode": "raw",
							"raw": "{\"application_no\":\"14255\",\"isInsured\":true}",
							"options": {
								"raw": {
									"language": "text"
								}
							}
						},
						"url": {
							"raw": "http://172.23.25.25:8087/pdf/v1/covidQstn",
							"protocol": "http",
							"host": [
								"172",
								"23",
								"25",
								"25"
							],
							"port": "8087",
							"path": [
								"pdf",
								"v1",
								"covidQstn"
							]
						}
					},
					"response": []
				}
			]
		},
		{
			"name": "masterTables",
			"request": {
				"auth": {
					"type": "bearer",
					"bearer": [
						{
							"key": "token",
							"value": "{{TOKEN}}",
							"type": "string"
						}
					]
				},
				"method": "POST",
				"header": [],
				"url": {
					"raw": "http://172.23.25.70/app-form/v1/master-table/fetch-all",
					"protocol": "http",
					"host": [
						"172",
						"23",
						"25",
						"70"
					],
					"path": [
						"app-form",
						"v1",
						"master-table",
						"fetch-all"
					]
				}
			},
			"response": []
		},
		{
			"name": "nmlCheck",
			"request": {
				"auth": {
					"type": "bearer",
					"bearer": [
						{
							"key": "token",
							"value": "{{TOKEN}}",
							"type": "string"
						}
					]
				},
				"method": "POST",
				"header": [],
				"body": {
					"mode": "raw",
					"raw": "",
					"options": {
						"raw": {
							"language": "json"
						}
					}
				},
				"url": {
					"raw": "http://172.23.25.25:8087/app-form/v1//master-table/fetch-all",
					"protocol": "http",
					"host": [
						"172",
						"23",
						"25",
						"25"
					],
					"port": "8087",
					"path": [
						"app-form",
						"v1",
						"",
						"master-table",
						"fetch-all"
					]
				}
			},
			"response": []
		},
		{
			"name": "PdfDocumentUpload",
			"request": {
				"auth": {
					"type": "bearer",
					"bearer": [
						{
							"key": "token",
							"value": "{{TOKEN}}",
							"type": "string"
						}
					]
				},
				"method": "POST",
				"header": [],
				"body": {
					"mode": "raw",
					"raw": "{\r\n    \"otp\" : 110011,\r\n    \"policyNumber\" : \"U896626656\",\r\n    \"channel\" : \"Agency\",\r\n    \"agentName\" : \"PINLPBHN F BRLMBMLQQ\"\r\n\r\n}",
					"options": {
						"raw": {
							"language": "json"
						}
					}
				},
				"url": {
					"raw": "http://172.23.25.25:8087/app-form/v1/policy-submission/document/upload",
					"protocol": "http",
					"host": [
						"172",
						"23",
						"25",
						"25"
					],
					"port": "8087",
					"path": [
						"app-form",
						"v1",
						"policy-submission",
						"document",
						"upload"
					]
				}
			},
			"response": []
		},
		{
			"name": "PdfDocumentUpload Copy",
			"request": {
				"auth": {
					"type": "bearer",
					"bearer": [
						{
							"key": "token",
							"value": "{{TOKEN}}",
							"type": "string"
						}
					]
				},
				"method": "POST",
				"header": [],
				"body": {
					"mode": "raw",
					"raw": "{\r\n    \"otp\" : 110011,\r\n    \"policyNumber\" : \"C459463489\",\r\n    \"channel\" : \"Agency\",\r\n    \"agentName\" : \"PINLPBHN F BRLMBMLQQ\"\r\n\r\n}",
					"options": {
						"raw": {
							"language": "json"
						}
					}
				},
				"url": {
					"raw": "http://172.23.25.25:8087/app-form/v1/document/pdf-upload",
					"protocol": "http",
					"host": [
						"172",
						"23",
						"25",
						"25"
					],
					"port": "8087",
					"path": [
						"app-form",
						"v1",
						"document",
						"pdf-upload"
					]
				}
			},
			"response": []
		},
		{
			"name": "App-Form-Submission-Sync",
			"request": {
				"auth": {
					"type": "bearer",
					"bearer": [
						{
							"key": "token",
							"value": "{{TOKEN}}",
							"type": "string"
						}
					]
				},
				"method": "POST",
				"header": [],
				"body": {
					"mode": "raw",
					"raw": "{\r\n    \"otp\" : 110011,\r\n    \"policyNumber\" : \"C459463489\",\r\n    \"channel\" : \"Agency\",\r\n    \"agentName\" : \"PINLPBHN F BRLMBMLQQ\"\r\n\r\n}",
					"options": {
						"raw": {
							"language": "json"
						}
					}
				},
				"url": {
					"raw": "http://172.23.25.25:8087/app-form/v1/policy-submission/submission/sync",
					"protocol": "http",
					"host": [
						"172",
						"23",
						"25",
						"25"
					],
					"port": "8087",
					"path": [
						"app-form",
						"v1",
						"policy-submission",
						"submission",
						"sync"
					]
				}
			},
			"response": []
		},
		{
			"name": "AppFormSubmission",
			"request": {
				"auth": {
					"type": "bearer",
					"bearer": [
						{
							"key": "token",
							"value": "{{TOKEN}}",
							"type": "string"
						}
					]
				},
				"method": "POST",
				"header": [],
				"body": {
					"mode": "raw",
					"raw": "{\r\n    \"otp\" : 110011,\r\n    \"policyNumber\" : \"C458780448\",\r\n    \"channel\" : \"Agency\",\r\n    \"agentName\" : \"PINLPBHN F BRLMBMLQQ\"\r\n\r\n}",
					"options": {
						"raw": {
							"language": "json"
						}
					}
				},
				"url": {
					"raw": "http://172.23.25.25:8087/policySubmission/v1/app-form-submission-sync",
					"protocol": "http",
					"host": [
						"172",
						"23",
						"25",
						"25"
					],
					"port": "8087",
					"path": [
						"policySubmission",
						"v1",
						"app-form-submission-sync"
					]
				}
			},
			"response": []
		},
		{
			"name": "fetchReviewForm",
			"request": {
				"auth": {
					"type": "bearer",
					"bearer": [
						{
							"key": "token",
							"value": "{{TOKEN}}",
							"type": "string"
						}
					]
				},
				"method": "GET",
				"header": [],
				"url": {
					"raw": "http://172.23.25.25:8087/app-form/v1/review-form/fetch/C578851435",
					"protocol": "http",
					"host": [
						"172",
						"23",
						"25",
						"25"
					],
					"port": "8087",
					"path": [
						"app-form",
						"v1",
						"review-form",
						"fetch",
						"C578851435"
					]
				}
			},
			"response": []
		},
		{
			"name": "FetchUploadedDocument",
			"request": {
				"auth": {
					"type": "bearer",
					"bearer": [
						{
							"key": "token",
							"value": "{{TOKEN}}",
							"type": "string"
						}
					]
				},
				"method": "POST",
				"header": [],
				"body": {
					"mode": "raw",
					"raw": "{\r\n    \"policyNumber\" : \"U896656257\"\r\n}",
					"options": {
						"raw": {
							"language": "json"
						}
					}
				},
				"url": {
					"raw": "http://172.23.25.25:8087/app-form/v1/document/uploaded-document/fetch",
					"protocol": "http",
					"host": [
						"172",
						"23",
						"25",
						"25"
					],
					"port": "8087",
					"path": [
						"app-form",
						"v1",
						"document",
						"uploaded-document",
						"fetch"
					]
				}
			},
			"response": []
		},
		{
			"name": "FetchDocumentList",
			"request": {
				"auth": {
					"type": "bearer",
					"bearer": [
						{
							"key": "token",
							"value": "{{TOKEN}}",
							"type": "string"
						}
					]
				},
				"method": "POST",
				"header": [],
				"body": {
					"mode": "raw",
					"raw": "{\r\n    \"policyNumber\" : \"C578851435\"\r\n}",
					"options": {
						"raw": {
							"language": "json"
						}
					}
				},
				"url": {
					"raw": "http://172.23.25.25:8087/app-form/v1/documents/fetch",
					"protocol": "http",
					"host": [
						"172",
						"23",
						"25",
						"25"
					],
					"port": "8087",
					"path": [
						"app-form",
						"v1",
						"documents",
						"fetch"
					]
				}
			},
			"response": []
		},
		{
			"name": "FetchDocumentList Copy",
			"request": {
				"auth": {
					"type": "bearer",
					"bearer": [
						{
							"key": "token",
							"value": "{{TOKEN}}",
							"type": "string"
						}
					]
				},
				"method": "POST",
				"header": [],
				"body": {
					"mode": "raw",
					"raw": "{\r\n    \"policyNumber\" : \"C578851435\"\r\n}",
					"options": {
						"raw": {
							"language": "json"
						}
					}
				},
				"url": {
					"raw": "http://172.23.25.25:8087/app-form/v1/documents/fetch",
					"protocol": "http",
					"host": [
						"172",
						"23",
						"25",
						"25"
					],
					"port": "8087",
					"path": [
						"app-form",
						"v1",
						"documents",
						"fetch"
					]
				}
			},
			"response": []
		},
		{
			"name": "deleteDocument",
			"request": {
				"auth": {
					"type": "bearer",
					"bearer": [
						{
							"key": "token",
							"value": "{{TOKEN}}",
							"type": "string"
						}
					]
				},
				"method": "POST",
				"header": [],
				"body": {
					"mode": "raw",
					"raw": "{\r\n    \"policyNumber\" : \"U896656257\"\r\n}",
					"options": {
						"raw": {
							"language": "json"
						}
					}
				},
				"url": {
					"raw": "http://172.23.25.25:8087/app-form/v1/document/deleteDocument/28947155624000?docId=2012010544&category_id=mandatory\n",
					"protocol": "http",
					"host": [
						"172",
						"23",
						"25",
						"25"
					],
					"port": "8087",
					"path": [
						"app-form",
						"v1",
						"document",
						"deleteDocument",
						"28947155624000"
					],
					"query": [
						{
							"key": "docId",
							"value": "2012010544"
						},
						{
							"key": "category_id",
							"value": "mandatory\n"
						}
					]
				}
			},
			"response": []
		},
		{
			"name": "saveProposalFormPdf",
			"request": {
				"auth": {
					"type": "bearer",
					"bearer": [
						{
							"key": "token",
							"value": "{{TOKEN}}",
							"type": "string"
						}
					]
				},
				"method": "POST",
				"header": [
					{
						"key": "Content-Type",
						"value": "application/json",
						"type": "text"
					}
				],
				"body": {
					"mode": "raw",
					"raw": "{\r\n    \"policyNumber\" : \"C457586465\"\r\n}",
					"options": {
						"raw": {
							"language": "json"
						}
					}
				},
				"url": {
					"raw": "http://172.23.25.70/app-form/v1/document/proposal-form-save",
					"protocol": "http",
					"host": [
						"172",
						"23",
						"25",
						"70"
					],
					"path": [
						"app-form",
						"v1",
						"document",
						"proposal-form-save"
					]
				}
			},
			"response": []
		},
		{
			"name": "saveProposalFormPdf Copy",
			"request": {
				"auth": {
					"type": "bearer",
					"bearer": [
						{
							"key": "token",
							"value": "{{TOKEN}}",
							"type": "string"
						}
					]
				},
				"method": "POST",
				"header": [
					{
						"key": "Content-Type",
						"value": "application/json",
						"type": "text"
					}
				],
				"url": {
					"raw": "http://172.23.25.70/pdf/v1/saveProposalFormPdf/C459461753",
					"protocol": "http",
					"host": [
						"172",
						"23",
						"25",
						"70"
					],
					"path": [
						"pdf",
						"v1",
						"saveProposalFormPdf",
						"C459461753"
					]
				}
			},
			"response": []
		},
		{
			"name": "saveQuestionnaire",
			"request": {
				"auth": {
					"type": "bearer",
					"bearer": [
						{
							"key": "token",
							"value": "{{TOKEN}}",
							"type": "string"
						}
					]
				},
				"method": "POST",
				"header": [
					{
						"key": "Content-Type",
						"value": "application/json",
						"type": "text"
					}
				],
				"body": {
					"mode": "raw",
					"raw": "{\r\n  \"questionResponses\": [\r\n    \r\n    {\r\n      \"policyNumber\": \"C457621896\",\r\n      \"questionId\": 1,\r\n      \"customerId\": \"B0CD7964-52EB-4047-AE36-F84B6C7366D1\",\r\n      \"questionnaireId\": 1,\r\n      \"lpQuestionId\": 92,\r\n      \"answer\": true,\r\n      \"questionLevel\": 1,\r\n      \"parentQuestionId\": null,\r\n      \"customerType\": \"insured\",\r\n      \"parentQuestionnaireId\": \"\"\r\n    },\r\n    {\r\n      \"policyNumber\": \"C457621896\",\r\n      \"questionId\": 2,\r\n      \"customerId\": \"B0CD7964-52EB-4047-AE36-F84B6C7366D1\",\r\n      \"questionnaireId\": 1,\r\n      \"lpQuestionId\": 19,\r\n      \"answer\": false,\r\n      \"questionLevel\": 1,\r\n      \"parentQuestionId\": null,\r\n      \"customerType\": \"insured\",\r\n      \"parentQuestionnaireId\": \"\"\r\n    },\r\n    {\r\n      \"policyNumber\": \"C457621896\",\r\n      \"questionId\": 3,\r\n      \"customerId\": \"B0CD7964-52EB-4047-AE36-F84B6C7366D1\",\r\n      \"questionnaireId\": 1,\r\n      \"lpQuestionId\": 30,\r\n      \"answer\": null,\r\n      \"questionLevel\": 2,\r\n      \"parentQuestionId\": 2,\r\n      \"customerType\": \"insured\",\r\n      \"parentQuestionnaireId\": 1\r\n    },\r\n    {\r\n      \"policyNumber\": \"C457621896\",\r\n      \"questionId\": 4,\r\n      \"customerId\": \"B0CD7964-52EB-4047-AE36-F84B6C7366D1\",\r\n      \"questionnaireId\": 1,\r\n      \"lpQuestionId\": 20,\r\n      \"answer\": false,\r\n      \"questionLevel\": 1,\r\n      \"parentQuestionId\": null,\r\n      \"customerType\": \"insured\",\r\n      \"parentQuestionnaireId\": \"\"\r\n    },\r\n    {\r\n      \"policyNumber\": \"C457621896\",\r\n      \"questionId\": 5,\r\n      \"customerId\": \"B0CD7964-52EB-4047-AE36-F84B6C7366D1\",\r\n      \"questionnaireId\": 1,\r\n      \"lpQuestionId\": 5,\r\n      \"answer\": \"\",\r\n      \"questionLevel\": 2,\r\n      \"parentQuestionId\": 4,\r\n      \"customerType\": \"insured\",\r\n      \"parentQuestionnaireId\": 1\r\n    }\r\n    \r\n  ],\r\n  \"appformResponses\": null\r\n}"
				},
				"url": {
					"raw": "http://172.23.25.25:8087/appForm/v1/saveQuestionnaire",
					"protocol": "http",
					"host": [
						"172",
						"23",
						"25",
						"25"
					],
					"port": "8087",
					"path": [
						"appForm",
						"v1",
						"saveQuestionnaire"
					]
				}
			},
			"response": []
		},
		{
			"name": "checkPolicyStageStatus",
			"request": {
				"auth": {
					"type": "bearer",
					"bearer": [
						{
							"key": "token",
							"value": "eyJhbGciOiJIUzUxMiJ9.eyJzdWIiOiJ0YXRhYWlhIiwiY3VycmVudHRpbWVzdGFtcCI6MTY3MzQzNTkyNTAyMSwicm9sZXMiOlsiUk9MRV9BTk9NIiwiUk9MRV9BVVRIIiwiUk9MRV9DU1VQUE9SVCIsIlJPTEVfVkVSRlkiXSwiZXhwIjoxNjczNDM2NTI1LCJkZXZpY2VpZCI6bnVsbCwiaWF0IjoxNjczNDM1OTI1fQ.bz9xiOpKOr2mbsmu0HL95QpWeAHxV3SsDSEdS6XtqF5E6m6h4XEo4UFKgmzSBPhZBZXXPkp5ni8164xcm31JBw",
							"type": "string"
						}
					]
				},
				"method": "POST",
				"header": [
					{
						"key": "Content-Type",
						"value": "application/json",
						"type": "text"
					}
				],
				"url": {
					"raw": "http://172.23.25.25:8087/appForm/v1/checkPolicyStageStatus/C459212698",
					"protocol": "http",
					"host": [
						"172",
						"23",
						"25",
						"25"
					],
					"port": "8087",
					"path": [
						"appForm",
						"v1",
						"checkPolicyStageStatus",
						"C459212698"
					]
				}
			},
			"response": []
		},
		{
			"name": "GenerateOTP",
			"request": {
				"auth": {
					"type": "bearer",
					"bearer": [
						{
							"key": "token",
							"value": "eyJhbGciOiJIUzUxMiJ9.eyJzdWIiOiJ0YXRhYWlhIiwiY3VycmVudHRpbWVzdGFtcCI6MTY3MzQzNTkyNTAyMSwicm9sZXMiOlsiUk9MRV9BTk9NIiwiUk9MRV9BVVRIIiwiUk9MRV9DU1VQUE9SVCIsIlJPTEVfVkVSRlkiXSwiZXhwIjoxNjczNDM2NTI1LCJkZXZpY2VpZCI6bnVsbCwiaWF0IjoxNjczNDM1OTI1fQ.bz9xiOpKOr2mbsmu0HL95QpWeAHxV3SsDSEdS6XtqF5E6m6h4XEo4UFKgmzSBPhZBZXXPkp5ni8164xcm31JBw",
							"type": "string"
						}
					]
				},
				"method": "POST",
				"header": [
					{
						"key": "Content-Type",
						"value": "application/json",
						"type": "text"
					}
				],
				"url": {
					"raw": "http://172.23.25.25:8087/appForm/v1/checkPolicyStageStatus/C459212698",
					"protocol": "http",
					"host": [
						"172",
						"23",
						"25",
						"25"
					],
					"port": "8087",
					"path": [
						"appForm",
						"v1",
						"checkPolicyStageStatus",
						"C459212698"
					]
				}
			},
			"response": []
		},
		{
			"name": "fetchMasterDetails",
			"request": {
				"auth": {
					"type": "bearer",
					"bearer": [
						{
							"key": "token",
							"value": "eyJhbGciOiJIUzUxMiJ9.eyJzdWIiOiJ0YXRhYWlhIiwiY3VycmVudHRpbWVzdGFtcCI6MTY3MzQzNTkyNTAyMSwicm9sZXMiOlsiUk9MRV9BTk9NIiwiUk9MRV9BVVRIIiwiUk9MRV9DU1VQUE9SVCIsIlJPTEVfVkVSRlkiXSwiZXhwIjoxNjczNDM2NTI1LCJkZXZpY2VpZCI6bnVsbCwiaWF0IjoxNjczNDM1OTI1fQ.bz9xiOpKOr2mbsmu0HL95QpWeAHxV3SsDSEdS6XtqF5E6m6h4XEo4UFKgmzSBPhZBZXXPkp5ni8164xcm31JBw",
							"type": "string"
						}
					]
				},
				"method": "POST",
				"header": [
					{
						"key": "Content-Type",
						"value": "application/json",
						"type": "text"
					}
				],
				"url": {
					"raw": "http://172.23.25.25:8087/appForm/v1/checkPolicyStageStatus/C459212698",
					"protocol": "http",
					"host": [
						"172",
						"23",
						"25",
						"25"
					],
					"port": "8087",
					"path": [
						"appForm",
						"v1",
						"checkPolicyStageStatus",
						"C459212698"
					]
				}
			},
			"response": []
		},
		{
			"name": "fetchBasicAppFormDetails",
			"request": {
				"auth": {
					"type": "bearer",
					"bearer": [
						{
							"key": "token",
							"value": "eyJhbGciOiJIUzUxMiJ9.eyJzdWIiOiJ0YXRhYWlhIiwiY3VycmVudHRpbWVzdGFtcCI6MTY3MzU4NjY1NjAwMiwicm9sZXMiOlsiUk9MRV9BTk9NIiwiUk9MRV9BVVRIIiwiUk9MRV9DU1VQUE9SVCIsIlJPTEVfVkVSRlkiXSwiZXhwIjoxNjczNTg3MjU2LCJkZXZpY2VpZCI6bnVsbCwiaWF0IjoxNjczNTg2NjU2fQ.mwyODGF3KHi1APN_1T7irVwm4Siu6JhiluW2_XG80MOaXhUGMODStLbKq5InYE7pD2voRrhXm4sMLa6REzdXPg",
							"type": "string"
						}
					]
				},
				"method": "POST",
				"header": [],
				"body": {
					"mode": "raw",
					"raw": "{\r\n    \"policyNumber\" : \"C458580486\"\r\n}",
					"options": {
						"raw": {
							"language": "json"
						}
					}
				},
				"url": {
					"raw": "http://172.23.25.25:8087/appForm/v1/fetchBasicAppFormDetails",
					"protocol": "http",
					"host": [
						"172",
						"23",
						"25",
						"25"
					],
					"port": "8087",
					"path": [
						"appForm",
						"v1",
						"fetchBasicAppFormDetails"
					]
				}
			},
			"response": []
		},
		{
			"name": "nmlCheck",
			"request": {
				"auth": {
					"type": "bearer",
					"bearer": [
						{
							"key": "token",
							"value": "{{TOKEN}}",
							"type": "string"
						}
					]
				},
				"method": "POST",
				"header": [],
				"body": {
					"mode": "raw",
					"raw": "{\r\n    \"policyNumber\" : \"C457873851\"\r\n}",
					"options": {
						"raw": {
							"language": "json"
						}
					}
				},
				"url": {
					"raw": "http://172.23.25.25:8087/app-form/v1/nml",
					"protocol": "http",
					"host": [
						"172",
						"23",
						"25",
						"25"
					],
					"port": "8087",
					"path": [
						"app-form",
						"v1",
						"nml"
					]
				}
			},
			"response": []
		},
		{
			"name": "getIFSCDetails",
			"request": {
				"method": "POST",
				"header": [],
				"url": {
					"raw": "https://omnipp.tataaia.com/appForm/v1/getIFSCDetails/HDFC0001932",
					"protocol": "https",
					"host": [
						"omnipp",
						"tataaia",
						"com"
					],
					"path": [
						"appForm",
						"v1",
						"getIFSCDetails",
						"HDFC0001932"
					]
				}
			},
			"response": []
		},
		{
			"name": "financialWaiverServlet",
			"request": {
				"auth": {
					"type": "bearer",
					"bearer": [
						{
							"key": "token",
							"value": "{{TOKEN}}",
							"type": "string"
						}
					]
				},
				"method": "POST",
				"header": [
					{
						"key": "Content-Type",
						"value": "application/json",
						"type": "text"
					}
				],
				"body": {
					"mode": "raw",
					"raw": "{\r\n    \"policyNumber\" : \"C459920443\"\r\n}"
				},
				"url": {
					"raw": "http://172.23.25.725:8087/app-form/v1/financial-waiver",
					"protocol": "http",
					"host": [
						"172",
						"23",
						"25",
						"725"
					],
					"port": "8087",
					"path": [
						"app-form",
						"v1",
						"financial-waiver"
					]
				}
			},
			"response": []
		},
		{
			"name": "financialWaiverServlet Copy",
			"request": {
				"method": "POST",
				"header": [],
				"url": {
					"raw": "http://172.23.25.26:8087/appForm/v1/financialWaiverServlet",
					"protocol": "http",
					"host": [
						"172",
						"23",
						"25",
						"26"
					],
					"port": "8087",
					"path": [
						"appForm",
						"v1",
						"financialWaiverServlet"
					]
				}
			},
			"response": []
		},
		{
			"name": "checkPSCStatus",
			"request": {
				"auth": {
					"type": "bearer",
					"bearer": [
						{
							"key": "token",
							"value": "{{TOKEN}}",
							"type": "string"
						}
					]
				},
				"method": "POST",
				"header": [],
				"body": {
					"mode": "raw",
					"raw": "{\r\n    \r\n    \"policyNumber\": [\"C459845751\"],\r\n    \"agentCode\": \"4101911\",\r\n    \"acn\" : \"VPSCFS\"\r\n}",
					"options": {
						"raw": {
							"language": "json"
						}
					}
				},
				"url": {
					"raw": "http://172.23.25.216/app-form/v1/psc/check-status",
					"protocol": "http",
					"host": [
						"172",
						"23",
						"25",
						"216"
					],
					"path": [
						"app-form",
						"v1",
						"psc",
						"check-status"
					]
				}
			},
			"response": []
		},
		{
			"name": "checkPSCStatus Copy",
			"request": {
				"auth": {
					"type": "bearer",
					"bearer": [
						{
							"key": "token",
							"value": "{{TOKEN}}",
							"type": "string"
						}
					]
				},
				"method": "POST",
				"header": [],
				"body": {
					"mode": "raw",
					"raw": "{\r\n    \"policyNumber\": \"C458224658\",\r\n    \"pscType\": \"WEB\",\r\n    \"pscLanguage\": \"\",\r\n    \"pscPreferredCallTime\": \"\",\r\n    \"businessTypeId\": \"LifePlaner\"\r\n}",
					"options": {
						"raw": {
							"language": "json"
						}
					}
				},
				"url": {
					"raw": "http://172.23.25.216/app-form/v1/vpsc/verification",
					"protocol": "http",
					"host": [
						"172",
						"23",
						"25",
						"216"
					],
					"path": [
						"app-form",
						"v1",
						"vpsc",
						"verification"
					]
				}
			},
			"response": []
		},
		{
			"name": "panNSDL",
			"request": {
				"auth": {
					"type": "bearer",
					"bearer": [
						{
							"key": "token",
							"value": "{{TOKEN}}",
							"type": "string"
						}
					]
				},
				"method": "POST",
				"header": [],
				"body": {
					"mode": "raw",
					"raw": "{\r\n    \"policyNumber\": \r\n        \"C879287656\"\r\n  \r\n}",
					"options": {
						"raw": {
							"language": "json"
						}
					}
				},
				"url": {
					"raw": "http://172.23.25.25:8087/thymeleaf/panNSDLPdf",
					"protocol": "http",
					"host": [
						"172",
						"23",
						"25",
						"25"
					],
					"port": "8087",
					"path": [
						"thymeleaf",
						"panNSDLPdf"
					]
				}
			},
			"response": []
		},
		{
			"name": "document upload",
			"request": {
				"auth": {
					"type": "bearer",
					"bearer": [
						{
							"key": "token",
							"value": "{{TOKEN}}",
							"type": "string"
						}
					]
				},
				"method": "POST",
				"header": [],
				"body": {
					"mode": "formdata",
					"formdata": []
				},
				"url": {
					"raw": "http://omnipp.tataaia.com/policy/document/v1/upload/C459811316",
					"protocol": "http",
					"host": [
						"omnipp",
						"tataaia",
						"com"
					],
					"path": [
						"policy",
						"document",
						"v1",
						"upload",
						"C459811316"
					]
				}
			},
			"response": []
		},
		{
			"name": "document upload dev",
			"request": {
				"auth": {
					"type": "bearer",
					"bearer": [
						{
							"key": "token",
							"value": "{{TOKEN}}",
							"type": "string"
						}
					]
				},
				"method": "POST",
				"header": [],
				"body": {
					"mode": "formdata",
					"formdata": [
						{
							"key": "file",
							"type": "file",
							"src": "/C:/Users/pwcuser/Downloads/Screenshot_20230515-142349-327.jpg"
						},
						{
							"key": "documentId",
							"value": "1016010472",
							"type": "text"
						},
						{
							"key": "documentGroup",
							"value": "FP",
							"type": "text"
						},
						{
							"key": "policyId",
							"value": "U578780179",
							"type": "text"
						},
						{
							"key": "pageNo",
							"value": "0",
							"type": "text"
						},
						{
							"key": "filename",
							"value": "1016010472_0",
							"type": "text"
						},
						{
							"key": "documentNumber",
							"value": "null",
							"type": "text"
						},
						{
							"key": "category_id",
							"value": "5822881C-ECF8-4478-81B0-1071822CBD5B",
							"type": "text"
						},
						{
							"key": "expiry_date",
							"value": " ",
							"type": "text"
						},
						{
							"key": "otFlag",
							"value": "false",
							"type": "text"
						},
						{
							"key": "format",
							"value": ".jpg",
							"type": "text"
						}
					]
				},
				"url": {
					"raw": "https://omniuat.tataaia.com/policy/document/v1/upload/U578780179",
					"protocol": "https",
					"host": [
						"omniuat",
						"tataaia",
						"com"
					],
					"path": [
						"policy",
						"document",
						"v1",
						"upload",
						"U578780179"
					]
				}
			},
			"response": []
		},
		{
			"name": "fetchQuestionnaireList",
			"request": {
				"auth": {
					"type": "bearer",
					"bearer": [
						{
							"key": "token",
							"value": "{{TOKEN}}",
							"type": "string"
						}
					]
				},
				"method": "POST",
				"header": [],
				"body": {
					"mode": "raw",
					"raw": "{\r\n    \"policyNumber\" : \"C458078396\"\r\n} ",
					"options": {
						"raw": {
							"language": "json"
						}
					}
				},
				"url": {
					"raw": "http://172.23.25.25:8087/app-form/v1/questionnaire/fetch",
					"protocol": "http",
					"host": [
						"172",
						"23",
						"25",
						"25"
					],
					"port": "8087",
					"path": [
						"app-form",
						"v1",
						"questionnaire",
						"fetch"
					]
				}
			},
			"response": []
		},
		{
			"name": "fetchQuestionnaireList Copy",
			"request": {
				"auth": {
					"type": "bearer",
					"bearer": [
						{
							"key": "token",
							"value": "{{TOKEN}}",
							"type": "string"
						}
					]
				},
				"method": "POST",
				"header": [],
				"body": {
					"mode": "raw",
					"raw": "{\r\n    \"policyNumber\" : \"C458078396\"\r\n} ",
					"options": {
						"raw": {
							"language": "json"
						}
					}
				},
				"url": {
					"raw": "http://172.23.25.25:8087/app-form/v1/questionnaire/fetch",
					"protocol": "http",
					"host": [
						"172",
						"23",
						"25",
						"25"
					],
					"port": "8087",
					"path": [
						"app-form",
						"v1",
						"questionnaire",
						"fetch"
					]
				}
			},
			"response": []
		},
		{
			"name": "HealthAndOtherDetails",
			"request": {
				"auth": {
					"type": "bearer",
					"bearer": [
						{
							"key": "token",
							"value": "{{TOKEN}}",
							"type": "string"
						}
					]
				},
				"method": "POST",
				"header": [],
				"body": {
					"mode": "raw",
					"raw": "{\r\n    \"appformResponses\": [\r\n        {\r\n            \"policyNumber\": \"C457855662\",\r\n            \"questionId\": \"18Health\",\r\n            \"questionCategory\": \"health1\",\r\n            \"responseText\": false,\r\n            \"insuredId\": \"3094E28B-B7DE-47FF-8B30-928B0843789E\",\r\n            \"questionFor\": \"insured\",\r\n            \"questionText\": \"Are you currently in good health?\"\r\n        },\r\n        {\r\n            \"policyNumber\": \"C457855662\",\r\n            \"questionId\": \"19\",\r\n            \"questionCategory\": \"health1\",\r\n            \"responseText\": false,\r\n            \"insuredId\": \"3094E28B-B7DE-47FF-8B30-928B0843789E\",\r\n            \"questionFor\": \"insured\",\r\n            \"questionText\": \"Did you have any loss or gain of weight of 10kg or more in past 6 months?\"\r\n        },\r\n        {\r\n            \"policyNumber\": \"C457855662\",\r\n            \"questionId\": \"S30\",\r\n            \"questionCategory\": \"health1\",\r\n            \"responseText\": \"\",\r\n            \"insuredId\": \"3094E28B-B7DE-47FF-8B30-928B0843789E\",\r\n            \"questionFor\": \"insured\",\r\n            \"questionText\": \"How much did your weight change by?\"\r\n        },\r\n        {\r\n            \"policyNumber\": \"C457855662\",\r\n            \"questionId\": \"20\",\r\n            \"questionCategory\": \"health1\",\r\n            \"responseText\": false,\r\n            \"insuredId\": \"3094E28B-B7DE-47FF-8B30-928B0843789E\",\r\n            \"questionFor\": \"insured\",\r\n            \"questionText\": \"Do you have any physical deformity/handicap or congenital defect or abnormality?\"\r\n        },\r\n        {\r\n            \"policyNumber\": \"C457855662\",\r\n            \"questionId\": \"S5\",\r\n            \"questionCategory\": \"health1\",\r\n            \"responseText\": \"\",\r\n            \"insuredId\": \"3094E28B-B7DE-47FF-8B30-928B0843789E\",\r\n            \"questionFor\": \"insured\",\r\n            \"questionText\": \"\"\r\n        },\r\n        {\r\n            \"policyNumber\": \"C457855662\",\r\n            \"questionId\": \"72\",\r\n            \"questionCategory\": \"health1\",\r\n            \"responseText\": false,\r\n            \"insuredId\": \"3094E28B-B7DE-47FF-8B30-928B0843789E\",\r\n            \"questionFor\": \"insured\",\r\n            \"questionText\": \"Have you ever been advised to and/or have undergone any tests, investigations or surgery or had signs or symptoms of any condition, ailment or injury and / or were advised treatement for or have been hospitalized for check-up or treatment other than minor flu, or cold\"\r\n        },\r\n        {\r\n            \"policyNumber\": \"C457855662\",\r\n            \"questionId\": \"S31\",\r\n            \"questionCategory\": \"health1\",\r\n            \"responseText\": \"\",\r\n            \"insuredId\": \"3094E28B-B7DE-47FF-8B30-928B0843789E\",\r\n            \"questionFor\": \"insured\",\r\n            \"questionText\": \"\"\r\n        },\r\n        {\r\n            \"policyNumber\": \"C457855662\",\r\n            \"questionId\": \"210\",\r\n            \"questionCategory\": \"health1\",\r\n            \"responseText\": false,\r\n            \"insuredId\": \"3094E28B-B7DE-47FF-8B30-928B0843789E\",\r\n            \"questionFor\": \"insured\",\r\n            \"questionText\": \"Have you ever been advised to undergo any surgery or treatment or laboratory investigations (stress ECG echocardiogram, angiography, MRI/CT scan etc.) by any doctor or specialist?\"\r\n        },\r\n        {\r\n            \"policyNumber\": \"C457855662\",\r\n            \"questionId\": \"211\",\r\n            \"questionCategory\": \"health1\",\r\n            \"responseText\": \"\",\r\n            \"insuredId\": \"3094E28B-B7DE-47FF-8B30-928B0843789E\",\r\n            \"questionFor\": \"insured\",\r\n            \"questionText\": \"\"\r\n        },\r\n        {\r\n            \"policyNumber\": \"C457855662\",\r\n            \"questionId\": \"95\",\r\n            \"questionCategory\": \"health1\",\r\n            \"responseText\": false,\r\n            \"insuredId\": \"3094E28B-B7DE-47FF-8B30-928B0843789E\",\r\n            \"questionFor\": \"insured\",\r\n            \"questionText\": \"Have you been off work due to illness for a continuous peroid of 7 days and above during the last 5 years?\"\r\n        },\r\n        {\r\n            \"policyNumber\": \"C457855662\",\r\n            \"questionId\": \"S44\",\r\n            \"questionCategory\": \"health1\",\r\n            \"responseText\": \"\",\r\n            \"insuredId\": \"3094E28B-B7DE-47FF-8B30-928B0843789E\",\r\n            \"questionFor\": \"insured\",\r\n            \"questionText\": \"\"\r\n        },\r\n        {\r\n            \"policyNumber\": \"C457855662\",\r\n            \"questionId\": \"93\",\r\n            \"questionCategory\": \"health1\",\r\n            \"responseText\": false,\r\n            \"insuredId\": \"3094E28B-B7DE-47FF-8B30-928B0843789E\",\r\n            \"questionFor\": \"insured\",\r\n            \"questionText\": \"Has any of your family member (Parents and Siblings) ever been diagnosed with diabetes, Hypertension, Kidney Failure, Cancer, Heart Attack or any Hereditary Disorder before the age of 60?\"\r\n        },\r\n        {\r\n            \"policyNumber\": \"C457855662\",\r\n            \"questionId\": \"213\",\r\n            \"questionCategory\": \"health1\",\r\n            \"optionId\": \"\",\r\n            \"insuredId\": \"3094E28B-B7DE-47FF-8B30-928B0843789E\",\r\n            \"questionFor\": \"insured\",\r\n            \"questionText\": \"Father is\"\r\n        },\r\n        {\r\n            \"policyNumber\": \"C457855662\",\r\n            \"questionId\": \"215\",\r\n            \"questionCategory\": \"health1\",\r\n            \"optionId\": \"\",\r\n            \"insuredId\": \"3094E28B-B7DE-47FF-8B30-928B0843789E\",\r\n            \"questionFor\": \"insured\",\r\n            \"questionText\": \"Health Status\"\r\n        },\r\n        {\r\n            \"policyNumber\": \"C457855662\",\r\n            \"questionId\": \"219\",\r\n            \"questionCategory\": \"health1\",\r\n            \"responseText\": \"\",\r\n            \"insuredId\": \"3094E28B-B7DE-47FF-8B30-928B0843789E\",\r\n            \"questionFor\": \"insured\",\r\n            \"questionText\": \"Current Age\"\r\n        },\r\n        {\r\n            \"policyNumber\": \"C457855662\",\r\n            \"questionId\": \"221\",\r\n            \"questionCategory\": \"health1\",\r\n            \"optionId\": \"\",\r\n            \"insuredId\": \"3094E28B-B7DE-47FF-8B30-928B0843789E\",\r\n            \"questionFor\": \"insured\",\r\n            \"questionText\": \"Cause of Death\"\r\n        },\r\n        {\r\n            \"policyNumber\": \"C457855662\",\r\n            \"questionId\": \"224\",\r\n            \"questionCategory\": \"health1\",\r\n            \"responseText\": \"\",\r\n            \"insuredId\": \"3094E28B-B7DE-47FF-8B30-928B0843789E\",\r\n            \"questionFor\": \"insured\",\r\n            \"questionText\": \"Age at Death\"\r\n        },\r\n        {\r\n            \"policyNumber\": \"C457855662\",\r\n            \"questionId\": \"231\",\r\n            \"questionCategory\": \"health1\",\r\n            \"optionId\": \"\",\r\n            \"insuredId\": \"3094E28B-B7DE-47FF-8B30-928B0843789E\",\r\n            \"questionFor\": \"insured\",\r\n            \"questionText\": \"Mother is\"\r\n        },\r\n        {\r\n            \"policyNumber\": \"C457855662\",\r\n            \"questionId\": \"233\",\r\n            \"questionCategory\": \"health1\",\r\n            \"optionId\": \"\",\r\n            \"insuredId\": \"3094E28B-B7DE-47FF-8B30-928B0843789E\",\r\n            \"questionFor\": \"insured\",\r\n            \"questionText\": \"Health Status\"\r\n        },\r\n        {\r\n            \"policyNumber\": \"C457855662\",\r\n            \"questionId\": \"398\",\r\n            \"questionCategory\": \"health1\",\r\n            \"responseText\": \"\",\r\n            \"insuredId\": \"3094E28B-B7DE-47FF-8B30-928B0843789E\",\r\n            \"questionFor\": \"insured\",\r\n            \"questionText\": \"Current Age\"\r\n        },\r\n        {\r\n            \"policyNumber\": \"C457855662\",\r\n            \"questionId\": \"236\",\r\n            \"questionCategory\": \"health1\",\r\n            \"optionId\": \"\",\r\n            \"insuredId\": \"3094E28B-B7DE-47FF-8B30-928B0843789E\",\r\n            \"questionFor\": \"insured\",\r\n            \"questionText\": \"Cause of Death\"\r\n        },\r\n        {\r\n            \"policyNumber\": \"C457855662\",\r\n            \"questionId\": \"237\",\r\n            \"questionCategory\": \"health1\",\r\n            \"responseText\": \"\",\r\n            \"insuredId\": \"3094E28B-B7DE-47FF-8B30-928B0843789E\",\r\n            \"questionFor\": \"insured\",\r\n            \"questionText\": \"Age at Death\"\r\n        },\r\n        {\r\n            \"policyNumber\": \"C457855662\",\r\n            \"questionId\": \"54\",\r\n            \"questionCategory\": \"health1\",\r\n            \"responseText\": false,\r\n            \"insuredId\": \"3094E28B-B7DE-47FF-8B30-928B0843789E\",\r\n            \"questionFor\": \"insured\",\r\n            \"questionText\": \"Has any of your insurance application or reinstatement application on life, accident, medical or health, critical illeness or disability ever been declined, postponed, or accepted at extra premium or modified terms?\"\r\n        },\r\n        {\r\n            \"policyNumber\": \"C457855662\",\r\n            \"questionId\": \"S26\",\r\n            \"questionCategory\": \"health1\",\r\n            \"responseText\": \"\",\r\n            \"insuredId\": \"3094E28B-B7DE-47FF-8B30-928B0843789E\",\r\n            \"questionFor\": \"insured\",\r\n            \"questionText\": \"\"\r\n        },\r\n        {\r\n            \"policyNumber\": \"C457855662\",\r\n            \"questionId\": \"47\",\r\n            \"questionCategory\": \"health1\",\r\n            \"responseText\": true,\r\n            \"insuredId\": \"3094E28B-B7DE-47FF-8B30-928B0843789E\",\r\n            \"questionFor\": \"insured\",\r\n            \"questionText\": \"Are you pregnant?\"\r\n        },\r\n        {\r\n            \"policyNumber\": \"C457855662\",\r\n            \"questionId\": \"48\",\r\n            \"questionCategory\": \"health1\",\r\n            \"responseText\": \"28/05/2023\",\r\n            \"insuredId\": \"3094E28B-B7DE-47FF-8B30-928B0843789E\",\r\n            \"questionFor\": \"insured\",\r\n            \"questionText\": \"Expected delivery date\"\r\n        },\r\n        {\r\n            \"policyNumber\": \"C457855662\",\r\n            \"questionId\": \"49\",\r\n            \"questionCategory\": \"health1\",\r\n            \"responseText\": false,\r\n            \"insuredId\": \"3094E28B-B7DE-47FF-8B30-928B0843789E\",\r\n            \"questionFor\": \"insured\",\r\n            \"questionText\": \"Have you undergone any gynecological investigations for illness, internal checkups,breast checks such as mammogram or boipsy?\"\r\n        },\r\n        {\r\n            \"policyNumber\": \"C457855662\",\r\n            \"questionId\": \"S22\",\r\n            \"questionCategory\": \"health1\",\r\n            \"responseText\": \"\",\r\n            \"insuredId\": \"3094E28B-B7DE-47FF-8B30-928B0843789E\",\r\n            \"questionFor\": \"insured\",\r\n            \"questionText\": \"\"\r\n        },\r\n        {\r\n            \"policyNumber\": \"C457855662\",\r\n            \"questionId\": \"50\",\r\n            \"questionCategory\": \"health1\",\r\n            \"responseText\": false,\r\n            \"insuredId\": \"3094E28B-B7DE-47FF-8B30-928B0843789E\",\r\n            \"questionFor\": \"insured\",\r\n            \"questionText\": \"Have you ever consulted a doctor because of an irregularity at the breast,\\n            vagina,uterus,ovary,fallopian tubes,menustration,complications during pregnancy\\n            or child delivery or a sexually transmitted disease?',\\n          imageSrc: './assets/Images/healthstatus.svg\"\r\n        },\r\n        {\r\n            \"policyNumber\": \"C457855662\",\r\n            \"questionId\": \"S23\",\r\n            \"questionCategory\": \"health1\",\r\n            \"responseText\": \"\",\r\n            \"insuredId\": \"3094E28B-B7DE-47FF-8B30-928B0843789E\",\r\n            \"questionFor\": \"insured\",\r\n            \"questionText\": \"\"\r\n        },\r\n        {\r\n            \"policyNumber\": \"C457855662\",\r\n            \"questionId\": \"51\",\r\n            \"questionCategory\": \"health1\",\r\n            \"responseText\": false,\r\n            \"insuredId\": \"3094E28B-B7DE-47FF-8B30-928B0843789E\",\r\n            \"questionFor\": \"insured\",\r\n            \"questionText\": \"Have you suffered from any other disorder of the breast or reproductive organs,abnormal smear test(s) and irregular menses?\"\r\n        },\r\n        {\r\n            \"policyNumber\": \"C457855662\",\r\n            \"questionId\": \"S24\",\r\n            \"questionCategory\": \"health1\",\r\n            \"responseText\": \"\",\r\n            \"insuredId\": \"3094E28B-B7DE-47FF-8B30-928B0843789E\",\r\n            \"questionFor\": \"insured\",\r\n            \"questionText\": \"\"\r\n        },\r\n        {\r\n            \"policyNumber\": \"C457855662\",\r\n            \"questionId\": \"submitUI\",\r\n            \"questionCategory\": \"health1\",\r\n            \"responseText\": \"\",\r\n            \"insuredId\": \"3094E28B-B7DE-47FF-8B30-928B0843789E\",\r\n            \"questionFor\": \"insured\",\r\n            \"questionText\": \"\"\r\n        }\r\n    ]\r\n}",
					"options": {
						"raw": {
							"language": "json"
						}
					}
				},
				"url": {
					"raw": "http://172.23.25.25:8087/app-form/v1/health-other-detail/create",
					"protocol": "http",
					"host": [
						"172",
						"23",
						"25",
						"25"
					],
					"port": "8087",
					"path": [
						"app-form",
						"v1",
						"health-other-detail",
						"create"
					]
				}
			},
			"response": []
		},
		{
			"name": "vpsc/verification",
			"request": {
				"auth": {
					"type": "bearer",
					"bearer": [
						{
							"key": "token",
							"value": "{{TOKEN}}",
							"type": "string"
						}
					]
				},
				"method": "POST",
				"header": [],
				"body": {
					"mode": "raw",
					"raw": "{\r\n    \"policyNumber\": \"C458420779\",\r\n    \"pscType\": \"WEB\",\r\n    \"pscLanguage\": \"\",\r\n    \"pscPreferredCallTime\": \"\",\r\n    \"businessTypeId\": \"LifePlaner\"\r\n}",
					"options": {
						"raw": {
							"language": "json"
						}
					}
				},
				"url": {
					"raw": "http://172.23.25.25:8087/app-form/v1/vpsc/verification",
					"protocol": "http",
					"host": [
						"172",
						"23",
						"25",
						"25"
					],
					"port": "8087",
					"path": [
						"app-form",
						"v1",
						"vpsc",
						"verification"
					]
				}
			},
			"response": []
		},
		{
			"name": "loadPolicyStageDetails",
			"request": {
				"auth": {
					"type": "bearer",
					"bearer": [
						{
							"key": "token",
							"value": "{{TOKEN}}",
							"type": "string"
						}
					]
				},
				"method": "POST",
				"header": [],
				"body": {
					"mode": "raw",
					"raw": "{\r\n    \"policyNumber\": \"C459184247\"\r\n}",
					"options": {
						"raw": {
							"language": "json"
						}
					}
				},
				"url": {
					"raw": "http://172.23.25.25:8087/app-form/v1/loadPolicyStageDetails",
					"protocol": "http",
					"host": [
						"172",
						"23",
						"25",
						"25"
					],
					"port": "8087",
					"path": [
						"app-form",
						"v1",
						"loadPolicyStageDetails"
					]
				}
			},
			"response": []
		},
		{
			"name": "CreatePolicyStage",
			"request": {
				"auth": {
					"type": "bearer",
					"bearer": [
						{
							"key": "token",
							"value": "{{TOKEN}}",
							"type": "string"
						}
					]
				},
				"method": "POST",
				"header": [],
				"body": {
					"mode": "raw",
					"raw": "\r\n{\r\n    \"policyNumber\": \"C458639609\",\r\n    \"channel\": \"LifePlaner\",\r\n    \"stage\": \"App Form\",\r\n    \"stageDetails\": [\r\n        {\r\n            \"subStage\": \"12\",\r\n            \"policyFor\": \"7C055751-C9BC-44A0-939D-07845A7A7484\",\r\n            \"statusFlag\": \"Y\"\r\n        }\r\n    ]\r\n}",
					"options": {
						"raw": {
							"language": "json"
						}
					}
				},
				"url": {
					"raw": "http://172.23.25.70/app-form/v1/policy-stage/create",
					"protocol": "http",
					"host": [
						"172",
						"23",
						"25",
						"70"
					],
					"path": [
						"app-form",
						"v1",
						"policy-stage",
						"create"
					]
				}
			},
			"response": []
		},
		{
			"name": "CreatePolicyStage Copy",
			"request": {
				"auth": {
					"type": "bearer",
					"bearer": [
						{
							"key": "token",
							"value": "{{TOKEN}}",
							"type": "string"
						}
					]
				},
				"method": "POST",
				"header": [],
				"body": {
					"mode": "raw",
					"raw": "\r\n{\r\n    \"policyNumber\": \"C458639609\",\r\n    \"channel\": \"LifePlaner\",\r\n    \"stage\": \"App Form\",\r\n    \"stageDetails\": [\r\n        {\r\n            \"subStage\": \"12\",\r\n            \"policyFor\": \"7C055751-C9BC-44A0-939D-07845A7A7484\",\r\n            \"statusFlag\": \"Y\"\r\n        }\r\n    ]\r\n}",
					"options": {
						"raw": {
							"language": "json"
						}
					}
				},
				"url": {
					"raw": "http://172.23.25.70/app-form/v1/policy-stage/create",
					"protocol": "http",
					"host": [
						"172",
						"23",
						"25",
						"70"
					],
					"path": [
						"app-form",
						"v1",
						"policy-stage",
						"create"
					]
				}
			},
			"response": []
		},
		{
			"name": "calculateMsarTsar",
			"request": {
				"auth": {
					"type": "bearer",
					"bearer": [
						{
							"key": "token",
							"value": "{{TOKEN}}",
							"type": "string"
						}
					]
				},
				"method": "POST",
				"header": [],
				"body": {
					"mode": "raw",
					"raw": "{\r\n    \"policyNumber\": \"C458889899\"\r\n}",
					"options": {
						"raw": {
							"language": "json"
						}
					}
				},
				"url": {
					"raw": "http://172.23.25.25:8087/app-form/v1/calculateMsarTsar",
					"protocol": "http",
					"host": [
						"172",
						"23",
						"25",
						"25"
					],
					"port": "8087",
					"path": [
						"app-form",
						"v1",
						"calculateMsarTsar"
					]
				}
			},
			"response": []
		},
		{
			"name": "otp-submission",
			"request": {
				"auth": {
					"type": "bearer",
					"bearer": [
						{
							"key": "token",
							"value": "{{TOKEN}}",
							"type": "string"
						}
					]
				},
				"method": "POST",
				"header": [],
				"body": {
					"mode": "raw",
					"raw": "{\r\n    \"policyNumber\": \"C458889899\"\r\n}",
					"options": {
						"raw": {
							"language": "json"
						}
					}
				},
				"url": {
					"raw": "http://172.23.25.25:8087/app-form/v1/calculateMsarTsar",
					"protocol": "http",
					"host": [
						"172",
						"23",
						"25",
						"25"
					],
					"port": "8087",
					"path": [
						"app-form",
						"v1",
						"calculateMsarTsar"
					]
				}
			},
			"response": []
		},
		{
			"name": "InsuredDetailsSave",
			"request": {
				"auth": {
					"type": "bearer",
					"bearer": [
						{
							"key": "token",
							"value": "{{TOKEN}}",
							"type": "string"
						}
					]
				},
				"method": "POST",
				"header": [],
				"body": {
					"mode": "raw",
					"raw": "{\r\n    \"policyNumber\": \"C458889899\"\r\n}",
					"options": {
						"raw": {
							"language": "json"
						}
					}
				},
				"url": {
					"raw": "http://172.23.25.25:8087/app-form/v1/calculateMsarTsar",
					"protocol": "http",
					"host": [
						"172",
						"23",
						"25",
						"25"
					],
					"port": "8087",
					"path": [
						"app-form",
						"v1",
						"calculateMsarTsar"
					]
				}
			},
			"response": []
		},
		{
			"name": "InsuredDetailsSave Copy",
			"request": {
				"auth": {
					"type": "bearer",
					"bearer": [
						{
							"key": "token",
							"value": "{{TOKEN}}",
							"type": "string"
						}
					]
				},
				"method": "POST",
				"header": [],
				"body": {
					"mode": "raw",
					"raw": "{\r\n    \"policyNumber\": \"C458889899\"\r\n}",
					"options": {
						"raw": {
							"language": "json"
						}
					}
				},
				"url": {
					"raw": "http://172.23.25.25:8087/app-form/v1/calculateMsarTsar",
					"protocol": "http",
					"host": [
						"172",
						"23",
						"25",
						"25"
					],
					"port": "8087",
					"path": [
						"app-form",
						"v1",
						"calculateMsarTsar"
					]
				}
			},
			"response": []
		},
		{
			"name": "fetchProcessDetail",
			"request": {
				"auth": {
					"type": "bearer",
					"bearer": [
						{
							"key": "token",
							"value": "{{TOKEN}}",
							"type": "string"
						}
					]
				},
				"method": "POST",
				"header": [],
				"body": {
					"mode": "raw",
					"raw": "{\r\n    \"policyNumber\": \"C458889899\"\r\n}",
					"options": {
						"raw": {
							"language": "json"
						}
					}
				},
				"url": {
					"raw": "http://172.23.25.25:8087/app-form/v1/calculateMsarTsar",
					"protocol": "http",
					"host": [
						"172",
						"23",
						"25",
						"25"
					],
					"port": "8087",
					"path": [
						"app-form",
						"v1",
						"calculateMsarTsar"
					]
				}
			},
			"response": []
		},
		{
			"name": "New Request",
			"request": {
				"method": "GET",
				"header": []
			},
			"response": []
		}
	],
	"event": [
		{
			"listen": "prerequest",
			"script": {
				"type": "text/javascript",
				"exec": [
					"var options = {",
					"  'method': 'POST',",
					"  'url': 'http://172.23.25.216/login/v1/init',",
					"  'header': {",
					"    'Content-Type': 'application/json'",
					"  },",
					"  body: JSON.stringify({",
					"    \"channel\": \"CSUPPORT\",",
					"    \"secret\": \"dGF0YWFpYXxjc3VwcG9ydHxhbm9tOmNzdXBwb3J0OnZlcmZ5OmF1dGg=\"",
					"  })",
					"",
					"};",
					"pm.sendRequest(options, function (err, response) {",
					"    var jsonResp = response.json();",
					"     console.log(jsonResp);",
					"pm.collectionVariables.set(\"TOKEN\", jsonResp.data.token);",
					"});",
					"",
					"",
					"",
					""
				]
			}
		},
		{
			"listen": "test",
			"script": {
				"type": "text/javascript",
				"exec": [
					""
				]
			}
		}
	],
	"variable": [
		{
			"key": "TOKEN",
			"value": ""
		}
	]
}